cs233/Lab3/arraySortCheck_control.vcd
$date
	Sun Feb  9 19:23:18 2020
$end
$version
	Icarus Verilog
$end
$timescale
	1s
$end
$scope module arraySortCheck_control_test $end
$var wire 1 ! zero_length_array $end
$var wire 1 " sorted $end
$var wire 1 # select_index $end
$var wire 1 $ load_input $end
$var wire 1 % load_index $end
$var wire 1 & inversion_found $end
$var wire 1 ' end_of_array $end
$var wire 1 ( done $end
$var reg 5 ) array [4:0] $end
$var reg 1 * clock $end
$var reg 1 + go $end
$var reg 5 , length [4:0] $end
$var reg 1 - reset $end
$var integer 32 . i [31:0] $end
$scope module circuit $end
$var wire 5 / array [4:0] $end
$var wire 1 * clk $end
$var wire 1 ' end_of_array $end
$var wire 1 & inversion_found $end
$var wire 5 0 length [4:0] $end
$var wire 1 - reset $end
$var wire 1 ! zero_length_array $end
$var wire 1 1 zero_length_case $end
$var wire 1 # select_index $end
$var wire 1 $ load_input $end
$var wire 1 % load_index $end
$var wire 5 2 length_minus_1 [4:0] $end
$var wire 32 3 index_alu_in [31:0] $end
$var wire 32 4 b [31:0] $end
$var wire 32 5 array_plus_index_plus_1 [31:0] $end
$var wire 32 6 array_plus_index [31:0] $end
$var wire 32 7 array_alu_in [31:0] $end
$var wire 1 8 a_ne_b_1 $end
$var wire 1 9 a_lt_b_2 $end
$var wire 1 : a_lt_b_1 $end
$var wire 32 ; a [31:0] $end
$var reg 5 < array_reg [4:0] $end
$var reg 5 = index_reg [4:0] $end
$var reg 5 > length_reg [4:0] $end
$scope module compareElements $end
$var wire 1 8 ne $end
$var wire 1 : lt $end
$var wire 32 ? B [31:0] $end
$var wire 32 @ A [31:0] $end
$upscope $end
$scope module comparelength $end
$var wire 5 A A [4:0] $end
$var wire 5 B B [4:0] $end
$var wire 1 C ne $end
$var wire 1 9 lt $end
$upscope $end
$scope module comparelengthzero $end
$var wire 5 D A [4:0] $end
$var wire 5 E B [4:0] $end
$var wire 1 1 ne $end
$var wire 1 F lt $end
$upscope $end
$scope module rf $end
$var wire 1 * clock $end
$var wire 32 G internal_rdData [31:0] $end
$var wire 32 H rdData [31:0] $end
$var wire 5 I rdNum [4:0] $end
$var wire 1 J rdWriteEnable $end
$var wire 1 - reset $end
$var wire 32 K rsData [31:0] $end
$var wire 5 L rsNum [4:0] $end
$var wire 32 M rtData [31:0] $end
$var wire 5 N rtNum [4:0] $end
$var integer 32 O i [31:0] $end
$upscope $end
$upscope $end
$scope module control $end
$var wire 1 * clock $end
$var wire 1 ( done $end
$var wire 1 ' end_of_array $end
$var wire 1 + go $end
$var wire 1 & inversion_found $end
$var wire 1 % load_index $end
$var wire 1 $ load_input $end
$var wire 1 - reset $end
$var wire 1 P sCheck_next $end
$var wire 1 Q sGarbage_next $end
$var wire 1 R sGoOn_next $end
$var wire 1 S sSorted_next $end
$var wire 1 T sStart_next $end
$var wire 1 U sUnsorted_next $end
$var wire 1 # select_index $end
$var wire 1 " sorted $end
$var wire 1 ! zero_length_array $end
$var wire 1 V sUnsorted $end
$var wire 1 W sStart $end
$var wire 1 X sSorted $end
$var wire 1 Y sGoOn $end
$var wire 1 Z sGarbage $end
$var wire 1 [ sCheck $end
$scope module d1 $end
$var wire 1 * clk $end
$var wire 1 Q d $end
$var wire 1 \ enable $end
$var wire 1 ] reset $end
$var reg 1 Z q $end
$upscope $end
$scope module d2 $end
$var wire 1 * clk $end
$var wire 1 T d $end
$var wire 1 ^ enable $end
$var wire 1 _ reset $end
$var reg 1 W q $end
$upscope $end
$scope module d3 $end
$var wire 1 * clk $end
$var wire 1 P d $end
$var wire 1 ` enable $end
$var wire 1 a reset $end
$var reg 1 [ q $end
$upscope $end
$scope module d4 $end
$var wire 1 * clk $end
$var wire 1 R d $end
$var wire 1 b enable $end
$var wire 1 c reset $end
$var reg 1 Y q $end
$upscope $end
$scope module d5 $end
$var wire 1 * clk $end
$var wire 1 S d $end
$var wire 1 d enable $end
$var wire 1 e reset $end
$var reg 1 X q $end
$upscope $end
$scope module d6 $end
$var wire 1 * clk $end
$var wire 1 U d $end
$var wire 1 f enable $end
$var wire 1 g reset $end
$var reg 1 V q $end
$upscope $end
$upscope $end
$upscope $end
$enddefinitions $end
#0
$dumpvars
0g
1f
0e
1d
0c
1b
0a
1`
0_
1^
0]
1\
x[
xZ
xY
xX
xW
xV
0U
0T
0S
0R
1Q
0P
b100000 O
bx N
bx M
bx L
bx K
zJ
bz I
bz H
bx G
xF
b0 E
bx D
xC
bx B
bx A
bx @
bx ?
bx >
bx =
bx <
bx ;
x:
x9
x8
b0xxxxx 7
bx 6
bx 5
bx 4
b0xxxxx 3
bx 2
x1
bx 0
bx /
bx .
1-
bx ,
0+
0*
bx )
x(
x'
x&
x%
x$
x#
x"
x!
$end
#1
0'
b1 N
b0 L
1!
0%
0(
19
1C
b1 5
b0 6
b0 3
b0 =
b0 A
b11111 2
b11111 B
0F
01
b0 >
b0 D
b0 7
b0 <
1Z
0$
0W
0[
0#
0Y
0"
0X
0V
1*
bz G
#2
0&
08
0:
b0 4
b0 ?
b0 M
b0 ;
b0 @
b0 K
0*
b100000 .
0-
#3
18
1:
b1 4
b1 ?
b1 M
1*
#4
1T
0Q
0*
1+
b101 ,
b101 0
b1011 )
b1011 /
#5
1%
0Z
1$
1W
1*
#6
0*
#7
0!
b1100 N
b1011 L
b100 2
b100 B
11
b101 >
b101 D
b1100 5
b1011 6
b1011 7
b1011 <
1*
#8
b1100 4
b1100 ?
b1100 M
1:
b1011 ;
b1011 @
b1011 K
0*
#9
1*
#10
0*
#11
1*
#12
0*
#13
1*
#14
1P
0T
0*
0+
#15
0P
1R
0%
1[
0$
0W
1*
#16
0*
#17
1P
0R
1%
0[
1#
1Y
1*
#18
0*
#19
0P
1R
0%
b1101 N
b1100 L
0#
0Y
1[
b1101 5
b1100 6
b1 3
b1 =
b1 A
1*
#20
b1101 4
b1101 ?
b1101 M
18
1:
b1100 ;
b1100 @
b1100 K
0*
#21
1P
0R
1%
0[
1#
1Y
1*
#22
0*
#23
0P
1R
0%
b1110 N
b1101 L
0#
0Y
1[
b1110 5
b1101 6
b10 3
b10 =
b10 A
1*
#24
b1110 4
b1110 ?
b1110 M
18
1:
b1101 ;
b1101 @
b1101 K
0*
#25
1P
0R
1%
0[
1#
1Y
1*
#26
0*
#27
0P
1R
0%
b1111 N
b1110 L
0#
0Y
1[
b1111 5
b1110 6
b11 3
b11 =
b11 A
1*
#28
b1111 4
b1111 ?
b1111 M
18
1:
b1110 ;
b1110 @
b1110 K
0*
#29
1P
0R
1%
0[
1#
1Y
1*
#30
0*
#31
0P
1S
0%
1'
b10000 N
b1111 L
0#
0Y
1[
09
0C
b10000 5
b1111 6
b100 3
b100 =
b100 A
1*
#32
b10000 4
b10000 ?
b10000 M
18
1:
b1111 ;
b1111 @
b1111 K
0*
#33
1(
0[
1"
1X
1*
#34
0*
#35
1*
#36
0S
1T
0*
1+
b10 )
b10 /
#37
1T
1%
0(
1$
1W
0"
0X
1*
#38
0*
#39
0'
b11 N
b10 L
19
1C
b0 3
b0 =
b0 A
b11 5
b10 6
b10 7
b10 <
1*
#40
b10 4
b10 ?
b10 M
b1 ;
b1 @
b1 K
0*
#41
1*
#42
0*
#43
1*
#44
0*
#45
1*
#46
1P
0T
0*
0+
#47
0P
1R
0%
1[
0$
0W
1*
#48
0*
#49
1P
0R
1%
0[
1#
1Y
1*
#50
0*
#51
0P
1R
0%
b100 N
b11 L
0#
0Y
1[
b100 5
b11 6
b1 3
b1 =
b1 A
1*
#52
b11 4
b11 ?
b11 M
18
1:
b10 ;
b10 @
b10 K
0*
#53
1P
0R
1%
0[
1#
1Y
1*
#54
0*
#55
0P
1R
0%
b101 N
b100 L
0#
0Y
1[
b101 5
b100 6
b10 3
b10 =
b10 A
1*
#56
0R
1U
1&
b10 4
b10 ?
b10 M
18
0:
b11 ;
b11 @
b11 K
0*
#57
1(
0[
1V
1*
#58
0*
#59
1*
#60
0*
#61
1*
#62
0*
#63
1*
#64
0*
#65
1*
#66
0*
#67
1*
#68
1T
0U
0*
1+
b11 ,
b11 0
b111 )
b111 /
#69
1%
0(
1$
1W
0V
1*
#70
0*
#71
b1000 N
b111 L
b0 3
b0 =
b0 A
19
1C
b10 2
b10 B
b11 >
b11 D
b1000 5
b111 6
b111 7
b111 <
1*
#72
0&
1:
b1000 4
b1000 ?
b1000 M
b111 ;
b111 @
b111 K
0*
#73
1*
#74
0*
#75
1*
#76
0*
#77
1*
#78
1P
0T
0*
0+
#79
0P
1R
0%
1[
0$
0W
1*
#80
0*
#81
1P
0R
1%
0[
1#
1Y
1*
#82
0*
#83
0P
1R
0%
b1001 N
b1000 L
0#
0Y
1[
b1001 5
b1000 6
b1 3
b1 =
b1 A
1*
#84
b1001 4
b1001 ?
b1001 M
18
1:
b1000 ;
b1000 @
b1000 K
0*
#85
1P
0R
1%
0[
1#
1Y
1*
#86
0*
#87
0P
1S
0%
1'
b1010 N
b1001 L
0#
0Y
1[
09
0C
b1010 5
b1001 6
b10 3
b10 =
b10 A
1*
#88
1U
1&
b110 4
b110 ?
b110 M
18
0:
b1001 ;
b1001 @
b1001 K
0*
#89
1(
0[
1"
1X
1V
1*
