cs233/Lab10/pm.vcd
$date
	Sun Apr  5 13:22:12 2020
$end
$version
	Icarus Verilog
$end
$timescale
	1s
$end
$scope module test $end
$var wire 32 ! PC [31:0] $end
$var reg 1 " clk $end
$var reg 1 # done $end
$var reg 1 $ reset $end
$var integer 32 % i [31:0] $end
$scope module pm $end
$var wire 1 & PCSrc $end
$var wire 1 " clk $end
$var wire 1 ' forwardA $end
$var wire 1 ( forwardB $end
$var wire 1 $ reset $end
$var wire 1 ) stall $end
$var wire 1 * zero $end
$var wire 5 + wr_regnum_MW [4:0] $end
$var wire 5 , wr_regnum [4:0] $end
$var wire 32 - wr_data [31:0] $end
$var wire 5 . rt [4:0] $end
$var wire 5 / rs [4:0] $end
$var wire 32 0 rd2_data [31:0] $end
$var wire 32 1 rd1_data [31:0] $end
$var wire 5 2 rd [4:0] $end
$var wire 6 3 opcode [5:0] $end
$var wire 32 4 old_inst [31:0] $end
$var wire 32 5 old_alu_out_data [31:0] $end
$var wire 30 6 next_PC [31:2] $end
$var wire 32 7 new_rd2_data [31:0] $end
$var wire 32 8 new_rd1_data [31:0] $end
$var wire 30 9 new_PC_plus4 [31:2] $end
$var wire 32 : mux_rd2_data [31:0] $end
$var wire 32 ; load_data [31:0] $end
$var wire 32 < inst [31:0] $end
$var wire 32 = imm [31:0] $end
$var wire 6 > funct [5:0] $end
$var wire 32 ? alu_out_data [31:0] $end
$var wire 1 @ RegWrite_MW $end
$var wire 1 A RegWrite $end
$var wire 1 B RegDst $end
$var wire 30 C PC_target [31:2] $end
$var wire 30 D PC_plus4 [31:2] $end
$var wire 32 E PC [31:0] $end
$var wire 1 F MemWrite_MW $end
$var wire 1 G MemWrite $end
$var wire 1 H MemToReg_MW $end
$var wire 1 I MemToReg $end
$var wire 1 J MemRead_MW $end
$var wire 1 K MemRead $end
$var wire 32 L B_data [31:0] $end
$var wire 1 M BEQ $end
$var wire 1 N ALUSrc $end
$var wire 3 O ALUOp [2:0] $end
$scope module PC_reg $end
$var wire 1 " clk $end
$var wire 1 P enable $end
$var wire 1 $ reset $end
$var wire 30 Q d [29:0] $end
$var reg 30 R q [29:0] $end
$upscope $end
$scope module alu $end
$var wire 32 S out [31:0] $end
$var wire 1 * zero $end
$var wire 32 T inB [31:0] $end
$var wire 32 U inA [31:0] $end
$var wire 3 V control [2:0] $end
$upscope $end
$scope module branch_mux $end
$var wire 30 W out [29:0] $end
$var wire 1 & sel $end
$var wire 30 X temp1 [29:0] $end
$var wire 30 Y temp2 [29:0] $end
$var wire 30 Z B [29:0] $end
$var wire 30 [ A [29:0] $end
$upscope $end
$scope module data_memory $end
$var wire 1 " clk $end
$var wire 32 \ d_out [31:0] $end
$var wire 32 ] data_out [31:0] $end
$var wire 32 ^ internal_data_in [31:0] $end
$var wire 1 $ reset $end
$var wire 1 _ valid_address $end
$var wire 1 F mem_write $end
$var wire 1 J mem_read $end
$var wire 19 ` index [18:0] $end
$var wire 32 a data_in [31:0] $end
$var wire 32 b addr [31:0] $end
$var integer 32 c i [31:0] $end
$upscope $end
$scope module de_memread $end
$var wire 1 " clk $end
$var wire 1 d enable $end
$var wire 1 $ reset $end
$var wire 1 K d $end
$var reg 1 J q $end
$upscope $end
$scope module de_memtoreg $end
$var wire 1 " clk $end
$var wire 1 e enable $end
$var wire 1 $ reset $end
$var wire 1 I d $end
$var reg 1 H q $end
$upscope $end
$scope module de_memwrite $end
$var wire 1 " clk $end
$var wire 1 f enable $end
$var wire 1 $ reset $end
$var wire 1 G d $end
$var reg 1 F q $end
$upscope $end
$scope module de_regwrite $end
$var wire 1 " clk $end
$var wire 1 g enable $end
$var wire 1 $ reset $end
$var wire 1 A d $end
$var reg 1 @ q $end
$upscope $end
$scope module de_wrregnum $end
$var wire 1 " clk $end
$var wire 1 h enable $end
$var wire 1 $ reset $end
$var wire 5 i d [4:0] $end
$var reg 5 j q [4:0] $end
$upscope $end
$scope module decode $end
$var wire 1 N ALUSrc $end
$var wire 1 I MemToReg $end
$var wire 1 B RegDst $end
$var wire 1 A RegWrite $end
$var wire 6 k funct [5:0] $end
$var wire 1 l nop $end
$var wire 6 m opcode [5:0] $end
$var wire 1 n op0 $end
$var wire 1 G MemWrite $end
$var wire 1 K MemRead $end
$var wire 1 M BEQ $end
$var wire 3 o ALUOp [2:0] $end
$upscope $end
$scope module forward_a $end
$var wire 32 p out [31:0] $end
$var wire 1 ' sel $end
$var wire 32 q temp1 [31:0] $end
$var wire 32 r temp2 [31:0] $end
$var wire 32 s B [31:0] $end
$var wire 32 t A [31:0] $end
$upscope $end
$scope module forward_b $end
$var wire 32 u out [31:0] $end
$var wire 1 ( sel $end
$var wire 32 v temp1 [31:0] $end
$var wire 32 w temp2 [31:0] $end
$var wire 32 x B [31:0] $end
$var wire 32 y A [31:0] $end
$upscope $end
$scope module if_de_ins $end
$var wire 1 " clk $end
$var wire 1 z enable $end
$var wire 1 { reset $end
$var wire 32 | d [31:0] $end
$var reg 32 } q [31:0] $end
$upscope $end
$scope module if_de_pc $end
$var wire 1 " clk $end
$var wire 1 ~ enable $end
$var wire 1 !" reset $end
$var wire 30 "" d [29:0] $end
$var reg 30 #" q [29:0] $end
$upscope $end
$scope module imem $end
$var wire 30 $" addr [29:0] $end
$var wire 32 %" data [31:0] $end
$var reg 32 &" i [31:0] $end
$upscope $end
$scope module imm_mux $end
$var wire 32 '" A [31:0] $end
$var wire 32 (" B [31:0] $end
$var wire 32 )" out [31:0] $end
$var wire 1 N sel $end
$var wire 32 *" temp1 [31:0] $end
$var wire 32 +" temp2 [31:0] $end
$upscope $end
$scope module mw_data $end
$var wire 1 " clk $end
$var wire 32 ," d [31:0] $end
$var wire 1 -" enable $end
$var wire 1 $ reset $end
$var reg 32 ." q [31:0] $end
$upscope $end
$scope module mw_result $end
$var wire 1 " clk $end
$var wire 32 /" d [31:0] $end
$var wire 1 0" enable $end
$var wire 1 $ reset $end
$var reg 32 1" q [31:0] $end
$upscope $end
$scope module next_PC_adder $end
$var wire 30 2" in1 [29:0] $end
$var wire 30 3" in2 [29:0] $end
$var wire 30 4" out [29:0] $end
$upscope $end
$scope module rd_mux $end
$var wire 5 5" A [4:0] $end
$var wire 5 6" B [4:0] $end
$var wire 5 7" out [4:0] $end
$var wire 1 B sel $end
$var wire 5 8" temp1 [4:0] $end
$var wire 5 9" temp2 [4:0] $end
$upscope $end
$scope module rf $end
$var wire 1 " clock $end
$var wire 32 :" internal_rdData [31:0] $end
$var wire 5 ;" rdNum [4:0] $end
$var wire 1 @ rdWriteEnable $end
$var wire 1 $ reset $end
$var wire 32 <" rsData [31:0] $end
$var wire 5 =" rsNum [4:0] $end
$var wire 32 >" rtData [31:0] $end
$var wire 5 ?" rtNum [4:0] $end
$var wire 32 @" rdData [31:0] $end
$var integer 32 A" i [31:0] $end
$upscope $end
$scope module target_PC_adder $end
$var wire 30 B" in1 [29:0] $end
$var wire 30 C" in2 [29:0] $end
$var wire 30 D" out [29:0] $end
$upscope $end
$scope module wb_mux $end
$var wire 32 E" A [31:0] $end
$var wire 32 F" B [31:0] $end
$var wire 32 G" out [31:0] $end
$var wire 1 H sel $end
$var wire 32 H" temp1 [31:0] $end
$var wire 32 I" temp2 [31:0] $end
$upscope $end
$upscope $end
$upscope $end
$scope module test $end
$scope module pm $end
$scope module rf $end
$var reg 32 J" \r[0] [31:0] $end
$upscope $end
$upscope $end
$upscope $end
$scope module test $end
$scope module pm $end
$scope module rf $end
$var reg 32 K" \r[1] [31:0] $end
$upscope $end
$upscope $end
$upscope $end
$scope module test $end
$scope module pm $end
$scope module rf $end
$var reg 32 L" \r[2] [31:0] $end
$upscope $end
$upscope $end
$upscope $end
$scope module test $end
$scope module pm $end
$scope module rf $end
$var reg 32 M" \r[3] [31:0] $end
$upscope $end
$upscope $end
$upscope $end
$scope module test $end
$scope module pm $end
$scope module rf $end
$var reg 32 N" \r[4] [31:0] $end
$upscope $end
$upscope $end
$upscope $end
$scope module test $end
$scope module pm $end
$scope module rf $end
$var reg 32 O" \r[5] [31:0] $end
$upscope $end
$upscope $end
$upscope $end
$scope module test $end
$scope module pm $end
$scope module rf $end
$var reg 32 P" \r[6] [31:0] $end
$upscope $end
$upscope $end
$upscope $end
$scope module test $end
$scope module pm $end
$scope module rf $end
$var reg 32 Q" \r[7] [31:0] $end
$upscope $end
$upscope $end
$upscope $end
$scope module test $end
$scope module pm $end
$scope module rf $end
$var reg 32 R" \r[8] [31:0] $end
$upscope $end
$upscope $end
$upscope $end
$scope module test $end
$scope module pm $end
$scope module rf $end
$var reg 32 S" \r[9] [31:0] $end
$upscope $end
$upscope $end
$upscope $end
$scope module test $end
$scope module pm $end
$scope module rf $end
$var reg 32 T" \r[10] [31:0] $end
$upscope $end
$upscope $end
$upscope $end
$scope module test $end
$scope module pm $end
$scope module rf $end
$var reg 32 U" \r[11] [31:0] $end
$upscope $end
$upscope $end
$upscope $end
$scope module test $end
$scope module pm $end
$scope module rf $end
$var reg 32 V" \r[12] [31:0] $end
$upscope $end
$upscope $end
$upscope $end
$scope module test $end
$scope module pm $end
$scope module rf $end
$var reg 32 W" \r[13] [31:0] $end
$upscope $end
$upscope $end
$upscope $end
$scope module test $end
$scope module pm $end
$scope module rf $end
$var reg 32 X" \r[14] [31:0] $end
$upscope $end
$upscope $end
$upscope $end
$scope module test $end
$scope module pm $end
$scope module rf $end
$var reg 32 Y" \r[15] [31:0] $end
$upscope $end
$upscope $end
$upscope $end
$scope module test $end
$scope module pm $end
$scope module rf $end
$var reg 32 Z" \r[16] [31:0] $end
$upscope $end
$upscope $end
$upscope $end
$scope module test $end
$scope module pm $end
$scope module rf $end
$var reg 32 [" \r[17] [31:0] $end
$upscope $end
$upscope $end
$upscope $end
$scope module test $end
$scope module pm $end
$scope module rf $end
$var reg 32 \" \r[18] [31:0] $end
$upscope $end
$upscope $end
$upscope $end
$scope module test $end
$scope module pm $end
$scope module rf $end
$var reg 32 ]" \r[19] [31:0] $end
$upscope $end
$upscope $end
$upscope $end
$scope module test $end
$scope module pm $end
$scope module rf $end
$var reg 32 ^" \r[20] [31:0] $end
$upscope $end
$upscope $end
$upscope $end
$scope module test $end
$scope module pm $end
$scope module rf $end
$var reg 32 _" \r[21] [31:0] $end
$upscope $end
$upscope $end
$upscope $end
$scope module test $end
$scope module pm $end
$scope module rf $end
$var reg 32 `" \r[22] [31:0] $end
$upscope $end
$upscope $end
$upscope $end
$scope module test $end
$scope module pm $end
$scope module rf $end
$var reg 32 a" \r[23] [31:0] $end
$upscope $end
$upscope $end
$upscope $end
$scope module test $end
$scope module pm $end
$scope module rf $end
$var reg 32 b" \r[24] [31:0] $end
$upscope $end
$upscope $end
$upscope $end
$scope module test $end
$scope module pm $end
$scope module rf $end
$var reg 32 c" \r[25] [31:0] $end
$upscope $end
$upscope $end
$upscope $end
$scope module test $end
$scope module pm $end
$scope module rf $end
$var reg 32 d" \r[26] [31:0] $end
$upscope $end
$upscope $end
$upscope $end
$scope module test $end
$scope module pm $end
$scope module rf $end
$var reg 32 e" \r[27] [31:0] $end
$upscope $end
$upscope $end
$upscope $end
$scope module test $end
$scope module pm $end
$scope module rf $end
$var reg 32 f" \r[28] [31:0] $end
$upscope $end
$upscope $end
$upscope $end
$scope module test $end
$scope module pm $end
$scope module rf $end
$var reg 32 g" \r[29] [31:0] $end
$upscope $end
$upscope $end
$upscope $end
$scope module test $end
$scope module pm $end
$scope module rf $end
$var reg 32 h" \r[30] [31:0] $end
$upscope $end
$upscope $end
$upscope $end
$scope module test $end
$scope module pm $end
$scope module rf $end
$var reg 32 i" \r[31] [31:0] $end
$upscope $end
$upscope $end
$upscope $end
$enddefinitions $end
#0
$dumpvars
b10000000000010000000000000000 i"
b10000000000010000000000000000 h"
b10000000000010000000000000000 g"
b10000000000010000000000000000 f"
b10000000000010000000000000000 e"
b10000000000010000000000000000 d"
b10000000000010000000000000000 c"
b10000000000010000000000000000 b"
b10000000000010000000000000000 a"
b10000000000010000000000000000 `"
b10000000000010000000000000000 _"
b10000000000010000000000000000 ^"
b10000000000010000000000000000 ]"
b10000000000010000000000000000 \"
b10000000000010000000000000000 ["
b10000000000010000000000000000 Z"
b10000000000010000000000000000 Y"
b10000000000010000000000000000 X"
b10000000000010000000000000000 W"
b10000000000010000000000000000 V"
b10000000000010000000000000000 U"
b10000000000010000000000000000 T"
b10000000000010000000000000000 S"
b10000000000010000000000000000 R"
b10000000000010000000000000000 Q"
b10000000000010000000000000000 P"
b10000000000010000000000000000 O"
b10000000000010000000000000000 N"
b10000000000010000000000000000 M"
b10000000000010000000000000000 L"
b10000000000010000000000000000 K"
b0 J"
bx I"
bx H"
bx G"
bx F"
bx E"
bx D"
bx C"
bx B"
b100000 A"
bx @"
bx ?"
bx >"
bx ="
bx <"
bx ;"
bx :"
bx 9"
bx 8"
bx 7"
bx 6"
bx 5"
bx 4"
b1 3"
bx 2"
bx 1"
10"
bx /"
bx ."
1-"
bx ,"
bx +"
bx *"
bx )"
bx ("
bx '"
b100000000 &"
bx %"
bx $"
bx #"
bx ""
1!"
x~
bx }
bx |
1{
xz
bx y
bx x
bx w
bx v
bx u
bx t
bx s
bx r
bx q
bx p
bx o
xn
bx m
xl
bx k
bx j
bx i
1h
1g
1f
1e
1d
b1000000000000000000 c
bx b
bx a
bx `
x_
bx ^
bx ]
bx \
bx [
bx Z
bx Y
bx X
bx W
bx V
bx U
bx T
bx S
bx R
bx Q
xP
bx O
xN
xM
bx L
xK
xJ
xI
xH
xG
xF
bx00 E
bx D
bx C
xB
xA
x@
bx ?
bx >
bx =
bx <
bx ;
bx :
bx 9
bx 8
bx 7
bx 6
bx 5
bx 4
bx 3
bx 2
bx 1
bx 0
bx /
bx .
bx -
bx ,
bx +
x*
x)
x(
x'
x&
b100000 %
1$
0#
0"
bx00 !
$end
#6
b0 ,
b0 i
b0 7"
b0 9"
b0 8"
b0 C"
b0 +"
b11011110101011011011111011101111 \
b0 `
1P
1~
1z
0(
0'
b0 -
b0 @"
b0 G"
b100000000000000000000 2"
b100000000000000000000 $"
b0 >
b0 k
1n
b0 3
b0 m
b0 2
b0 6"
b0 .
b0 5"
b0 ?"
b0 /
b0 ="
b0 =
b0 ("
b0 w
b0 r
0_
0)
b0 H"
b0 I"
b10000000000000000000000 E
b10000000000000000000000 !
b100000000000000000000 R
b0 9
b0 #"
b0 B"
b0 <
b0 }
b0 ?
b0 b
b0 s
b0 x
b0 1"
b0 E"
b0 7
b0 a
b0 ."
0J
0@
0H
0F
b0 +
b0 j
b0 ;"
1"
#7
b0 L
b0 T
b0 )"
b0 *"
b0 :
b0 u
b0 '"
b0 ,"
b0 8
b0 U
b0 p
b0 v
b0 q
x!"
x{
b0 :"
b0 0
b0 y
b0 >"
b0 1
b0 t
b0 <"
0$
#8
0A
b100000000000000000001 6
b100000000000000000001 Q
b100000000000000000001 W
0!"
0{
b0 Y
b100000000000000000001 X
0&
1B
0N
1*
b0 O
b0 V
b0 o
1l
b0 C
b0 Z
b0 D"
b100000000000000000001 D
b100000000000000000001 [
b100000000000000000001 ""
b100000000000000000001 4"
0M
0I
0K
0G
#9
b0 5
b0 S
b0 /"
b10001110100000100000000000000000 4
b10001110100000100000000000000000 |
b10001110100000100000000000000000 %"
b0 ;
b0 ]
b0 F"
b0 ^
#12
0"
#18
0n
b100011 3
b100011 m
b10 .
b10 5"
b10 ?"
b10100 /
b10100 ="
b100000000000000000001 2"
b100000000000000000001 $"
b10001110100000100000000000000000 <
b10001110100000100000000000000000 }
b100000000000000000001 9
b100000000000000000001 #"
b100000000000000000001 B"
b10000000000000000000100 E
b10000000000000000000100 !
b100000000000000000001 R
1"
#19
b10000000000010000000000000000 L
b10000000000010000000000000000 T
b10000000000010000000000000000 )"
b10000000000010000000000000000 *"
b10000000000010000000000000000 :
b10000000000010000000000000000 u
b10000000000010000000000000000 '"
b10000000000010000000000000000 ,"
b10000000000010000000000000000 8
b10000000000010000000000000000 U
b10000000000010000000000000000 p
b10000000000010000000000000000 v
b10000000000010000000000000000 q
b10000000000010000000000000000 0
b10000000000010000000000000000 y
b10000000000010000000000000000 >"
b10000000000010000000000000000 1
b10000000000010000000000000000 t
b10000000000010000000000000000 <"
#20
b10 ,
b10 i
b10 7"
b0 L
b0 T
b0 )"
1A
b10 8"
b0 *"
b100000000000000000010 6
b100000000000000000010 Q
b100000000000000000010 W
0B
1N
b100000000000000000010 X
0l
1I
1K
b100000000000000000010 D
b100000000000000000010 [
b100000000000000000010 ""
b100000000000000000010 4"
b100000000000000000001 C
b100000000000000000001 Z
b100000000000000000001 D"
#21
0*
b10001110100000110000000000000100 4
b10001110100000110000000000000100 |
b10001110100000110000000000000100 %"
#22
b10000000000010000000000000000 5
b10000000000010000000000000000 S
b10000000000010000000000000000 /"
#24
0"
#30
1P
1~
1z
b11 ,
b11 i
b11 7"
b100 L
b100 T
b100 )"
0)
b11 8"
b100 C"
b100 +"
b1 \
b100000000000000 `
b100000000000000000010 2"
b100000000000000000010 $"
b100 >
b100 k
b11 .
b11 5"
b11 ?"
b100 =
b100 ("
1_
b10000000000000000001000 E
b10000000000000000001000 !
b100000000000000000010 R
b100000000000000000010 9
b100000000000000000010 #"
b100000000000000000010 B"
b10001110100000110000000000000100 <
b10001110100000110000000000000100 }
b10000000000010000000000000000 ?
b10000000000010000000000000000 b
b10000000000010000000000000000 s
b10000000000010000000000000000 x
b10000000000010000000000000000 1"
b10000000000010000000000000000 E"
b10000000000010000000000000000 7
b10000000000010000000000000000 a
b10000000000010000000000000000 ."
1J
1@
1H
b10 +
b10 j
b10 ;"
1"
#32
b100000000000000000011 6
b100000000000000000011 Q
b100000000000000000011 W
b100000000000000000011 X
b10000000000010000000000000100 5
b10000000000010000000000000100 S
b10000000000010000000000000100 /"
b100000000000000000011 D
b100000000000000000011 [
b100000000000000000011 ""
b100000000000000000011 4"
b100000000000000000110 C
b100000000000000000110 Z
b100000000000000000110 D"
#33
b1 -
b1 @"
b1 G"
b1 I"
b11000100010000000100000 4
b11000100010000000100000 |
b11000100010000000100000 %"
b1 ;
b1 ]
b1 F"
b10000000000010000000000000000 ^
#34
b1 :"
#36
0"
#42
0P
0~
0z
b10000000000010000000000000100 8
b10000000000010000000000000100 U
b10000000000010000000000000100 p
1)
b10 ,
b10 i
b10 7"
b0 q
b10000000000010000000000000100 r
b10000000100000 L
b10000000100000 T
b10000000100000 )"
b11111111 \
b100000000000001 `
b10 8"
1'
b10000000100000 C"
b10000000100000 +"
b100000 >
b100000 k
1n
b0 3
b0 m
b100 2
b100 6"
b10 .
b10 5"
b10 ?"
b11 /
b11 ="
b10000000100000 =
b10000000100000 ("
b100000000000000000011 2"
b100000000000000000011 $"
b11 +
b11 j
b11 ;"
b10000000000010000000000000100 ?
b10000000000010000000000000100 b
b10000000000010000000000000100 s
b10000000000010000000000000100 x
b10000000000010000000000000100 1"
b10000000000010000000000000100 E"
b11000100010000000100000 <
b11000100010000000100000 }
b100000000000000000011 9
b100000000000000000011 #"
b100000000000000000011 B"
b1 L"
b10000000000000000001100 E
b10000000000000000001100 !
b100000000000000000011 R
1"
#43
b1 :
b1 u
b1 '"
b1 ,"
b1 v
b1 0
b1 y
b1 >"
#44
b100 ,
b100 i
b100 7"
b1 L
b1 T
b1 )"
b0 8"
b100 9"
b1 *"
b0 +"
b100000000000000000100 6
b100000000000000000100 Q
b100000000000000000100 W
1B
0N
b100000000000000000100 X
b10000000000010010000000100100 5
b10000000000010010000000100100 S
b10000000000010010000000100100 /"
0I
0K
b100000000000000000100 D
b100000000000000000100 [
b100000000000000000100 ""
b100000000000000000100 4"
b100000010000000100011 C
b100000010000000100011 Z
b100000010000000100011 D"
#45
b11111111 -
b11111111 @"
b11111111 G"
b11111111 I"
b11111111 ;
b11111111 ]
b11111111 F"
b10001110100001010000000000001000 4
b10001110100001010000000000001000 |
b10001110100001010000000000001000 %"
#46
b11111111 :"
b10000000000010000000000000101 5
b10000000000010000000000000101 S
b10000000000010000000000000101 /"
#48
0"
#54
b10000000000010000000000000000 8
b10000000000010000000000000000 U
b10000000000010000000000000000 p
1P
1~
1z
b10000000000010000000000000101 -
b10000000000010000000000000101 @"
b10000000000010000000000000101 G"
b10000000000010000000000000000 q
b0 r
0)
b10000000000010000000000000101 H"
b0 I"
0'
b11111111 M"
b10000000000010000000000000101 ?
b10000000000010000000000000101 b
b10000000000010000000000000101 s
b10000000000010000000000000101 x
b10000000000010000000000000101 1"
b10000000000010000000000000101 E"
b1 7
b1 a
b1 ."
0J
0H
b100 +
b100 j
b100 ;"
1"
#55
b11111111 8
b11111111 U
b11111111 p
b11111111 q
b10000000000010000000000000101 :"
b11111111 1
b11111111 t
b11111111 <"
#57
b100000000 5
b100000000 S
b100000000 /"
b0 ;
b0 ]
b0 F"
b1 ^
#60
0"
#66
b0 ,
b0 i
b0 7"
b100000000 -
b100000000 @"
b100000000 G"
b11011110101011011011111011101111 \
b1000000 `
b0 9"
b1000 C"
b100000000 H"
0_
b1000 >
b1000 k
0n
b100011 3
b100011 m
b0 2
b0 6"
b101 .
b101 5"
b101 ?"
b10100 /
b10100 ="
b1000 =
b1000 ("
b100000000000000000100 2"
b100000000000000000100 $"
b100000000 ?
b100000000 b
b100000000 s
b100000000 x
b100000000 1"
b100000000 E"
b10001110100001010000000000001000 <
b10001110100001010000000000001000 }
b100000000000000000100 9
b100000000000000000100 #"
b100000000000000000100 B"
b10000000000010000000000000101 N"
b10000000000000000010000 E
b10000000000000000010000 !
b100000000000000000100 R
1"
#67
b10000000000010000000000000000 L
b10000000000010000000000000000 T
b10000000000010000000000000000 )"
b10000000000010000000000000000 *"
b10000000000010000000000000000 :
b10000000000010000000000000000 u
b10000000000010000000000000000 '"
b10000000000010000000000000000 ,"
b10000000000010000000000000000 8
b10000000000010000000000000000 U
b10000000000010000000000000000 p
b10000000000010000000000000000 v
b10000000000010000000000000000 q
b100000000 :"
b10000000000010000000000000000 0
b10000000000010000000000000000 y
b10000000000010000000000000000 >"
b10000000000010000000000000000 1
b10000000000010000000000000000 t
b10000000000010000000000000000 <"
#68
b101 ,
b101 i
b101 7"
b1000 L
b1000 T
b1000 )"
b101 8"
b0 *"
b1000 +"
b100000000000000000101 6
b100000000000000000101 Q
b100000000000000000101 W
0B
1N
b100000000000000000101 X
1*
1I
1K
b100000000000000000101 D
b100000000000000000101 [
b100000000000000000101 ""
b100000000000000000101 4"
b100000000000000001100 C
b100000000000000001100 Z
b100000000000000001100 D"
#69
0*
b11001010011000000100000 4
b11001010011000000100000 |
b11001010011000000100000 %"
#70
b10000000000010000000000001000 5
b10000000000010000000000001000 S
b10000000000010000000000001000 /"
#72
0"
#78
0P
0~
0z
b11000000100000 L
b11000000100000 T
b11000000100000 )"
1)
b11000000100000 C"
b11000000100000 +"
b10000000000010000000000001000 :
b10000000000010000000000001000 u
b10000000000010000000000001000 '"
b10000000000010000000000001000 ,"
b10000000000 \
b100000000000010 `
b0 -
b0 @"
b0 G"
b0 v
b100000000000000000101 2"
b100000000000000000101 $"
b100000 >
b100000 k
1n
b0 3
b0 m
b110 2
b110 6"
b11 /
b11 ="
b11000000100000 =
b11000000100000 ("
b10000000000010000000000001000 w
1_
b0 H"
1(
b10000000000000000010100 E
b10000000000000000010100 !
b100000000000000000101 R
b100000000 N"
b100000000000000000101 9
b100000000000000000101 #"
b100000000000000000101 B"
b11001010011000000100000 <
b11001010011000000100000 }
b10000000000010000000000001000 ?
b10000000000010000000000001000 b
b10000000000010000000000001000 s
b10000000000010000000000001000 x
b10000000000010000000000001000 1"
b10000000000010000000000001000 E"
b10000000000010000000000000000 7
b10000000000010000000000000000 a
b10000000000010000000000000000 ."
1J
1H
b101 +
b101 j
b101 ;"
1"
#79
b11111111 8
b11111111 U
b11111111 p
b11111111 q
b0 :"
b11111111 1
b11111111 t
b11111111 <"
#80
b110 ,
b110 i
b110 7"
b10000000000010000000000001000 L
b10000000000010000000000001000 T
b10000000000010000000000001000 )"
b100000000000000000110 6
b100000000000000000110 Q
b100000000000000000110 W
b0 8"
b110 9"
b10000000000010000000000001000 *"
b0 +"
b100000000000000000110 X
1B
0N
b100000000000000000110 D
b100000000000000000110 [
b100000000000000000110 ""
b100000000000000000110 4"
0I
0K
b100000011000000100101 C
b100000011000000100101 Z
b100000011000000100101 D"
#81
b10000000000 -
b10000000000 @"
b10000000000 G"
b10000000000 I"
b10001110100001110000000000001100 4
b10001110100001110000000000001100 |
b10001110100001110000000000001100 %"
b10000000000 ;
b10000000000 ]
b10000000000 F"
b10000000000010000000000000000 ^
#82
b10000000000 :"
b10000000000010000000100000111 5
b10000000000010000000100000111 S
b10000000000010000000100000111 /"
#84
0"
#90
b10000000000010000000000000000 L
b10000000000010000000000000000 T
b10000000000010000000000000000 )"
b10000000000010000000000000000 *"
b10000000000010000000000000000 v
1P
1~
1z
b10000000000010000000100000111 -
b10000000000010000000100000111 @"
b10000000000010000000100000111 G"
b10000000000010000000000000000 :
b10000000000010000000000000000 u
b10000000000010000000000000000 '"
b10000000000010000000000000000 ,"
b11011110101011011011111011101111 \
b100000001000001 `
0(
b0 I"
0)
b10000000000010000000100000111 H"
b0 w
b110 +
b110 j
b110 ;"
0H
0J
b10000000000010000000000001000 7
b10000000000010000000000001000 a
b10000000000010000000000001000 ."
b10000000000010000000100000111 ?
b10000000000010000000100000111 b
b10000000000010000000100000111 s
b10000000000010000000100000111 x
b10000000000010000000100000111 1"
b10000000000010000000100000111 E"
b10000000000 O"
1"
#91
b10000000000 L
b10000000000 T
b10000000000 )"
b10000000000 *"
b10000000000 :
b10000000000 u
b10000000000 '"
b10000000000 ,"
b10000000000 v
b10000000000010000000100000111 :"
b10000000000 0
b10000000000 y
b10000000000 >"
#93
b10011111111 5
b10011111111 S
b10011111111 /"
b0 ;
b0 ]
b0 F"
b10000000000010000000000001000 ^
#96
0"
#102
b0 ,
b0 i
b0 7"
b0 9"
b1100 C"
b10011111111 -
b10011111111 @"
b10011111111 G"
b100111111 `
b100000000000000000110 2"
b100000000000000000110 $"
b1100 >
b1100 k
0n
b100011 3
b100011 m
b0 2
b0 6"
b111 .
b111 5"
b111 ?"
b10100 /
b10100 ="
b1100 =
b1100 ("
b10011111111 H"
0_
b10000000000000000011000 E
b10000000000000000011000 !
b100000000000000000110 R
b10000000000010000000100000111 P"
b100000000000000000110 9
b100000000000000000110 #"
b100000000000000000110 B"
b10001110100001110000000000001100 <
b10001110100001110000000000001100 }
b10011111111 ?
b10011111111 b
b10011111111 s
b10011111111 x
b10011111111 1"
b10011111111 E"
b10000000000 7
b10000000000 a
b10000000000 ."
1"
#103
b10000000000010000000000000000 L
b10000000000010000000000000000 T
b10000000000010000000000000000 )"
b10000000000010000000000000000 *"
b10000000000010000000000000000 :
b10000000000010000000000000000 u
b10000000000010000000000000000 '"
b10000000000010000000000000000 ,"
b10000000000010000000000000000 8
b10000000000010000000000000000 U
b10000000000010000000000000000 p
b10000000000010000000000000000 v
b10000000000010000000000000000 q
b10011111111 :"
b10000000000010000000000000000 0
b10000000000010000000000000000 y
b10000000000010000000000000000 >"
b10000000000010000000000000000 1
b10000000000010000000000000000 t
b10000000000010000000000000000 <"
#104
b111 ,
b111 i
b111 7"
b1100 L
b1100 T
b1100 )"
b100000000000000000111 6
b100000000000000000111 Q
b100000000000000000111 W
b111 8"
b0 *"
b1100 +"
b100000000000000000111 X
0B
1N
1*
b100000000000000000111 D
b100000000000000000111 [
b100000000000000000111 ""
b100000000000000000111 4"
1I
1K
b100000000000000010010 C
b100000000000000010010 Z
b100000000000000010010 D"
#105
0*
b10001010100000000100000 4
b10001010100000000100000 |
b10001010100000000100000 %"
b10000000000 ^
#106
b10000000000010000000000001100 5
b10000000000010000000000001100 S
b10000000000010000000000001100 /"
#108
0"
#114
b101 ,
b101 i
b101 7"
b100000000100000 L
b100000000100000 T
b100000000100000 )"
b0 -
b0 @"
b0 G"
b1100100 \
b100000000000011 `
b101 8"
b100000000100000 C"
b100000000100000 +"
b0 H"
1_
b100000 >
b100000 k
1n
b0 3
b0 m
b1000 2
b1000 6"
b101 .
b101 5"
b101 ?"
b10 /
b10 ="
b100000000100000 =
b100000000100000 ("
b100000000000000000111 2"
b100000000000000000111 $"
b111 +
b111 j
b111 ;"
1H
1J
b10000000000010000000000000000 7
b10000000000010000000000000000 a
b10000000000010000000000000000 ."
b10000000000010000000000001100 ?
b10000000000010000000000001100 b
b10000000000010000000000001100 s
b10000000000010000000000001100 x
b10000000000010000000000001100 1"
b10000000000010000000000001100 E"
b10001010100000000100000 <
b10001010100000000100000 }
b100000000000000000111 9
b100000000000000000111 #"
b100000000000000000111 B"
b10011111111 P"
b10000000000000000011100 E
b10000000000000000011100 !
b100000000000000000111 R
1"
#115
b10000000000 :
b10000000000 u
b10000000000 '"
b10000000000 ,"
b1 8
b1 U
b1 p
b10000000000 v
b1 q
b0 :"
b10000000000 0
b10000000000 y
b10000000000 >"
b1 1
b1 t
b1 <"
#116
b1000 ,
b1000 i
b1000 7"
b10000000000 L
b10000000000 T
b10000000000 )"
b0 8"
b1000 9"
b10000000000 *"
b0 +"
b100000000000000001000 6
b100000000000000001000 Q
b100000000000000001000 W
1B
0N
b100000000000000001000 X
0I
0K
b100000000000000001000 D
b100000000000000001000 [
b100000000000000001000 ""
b100000000000000001000 4"
b100000100000000100111 C
b100000100000000100111 Z
b100000100000000100111 D"
#117
b1100100 -
b1100100 @"
b1100100 G"
b1100100 I"
b111001110100100000100000 4
b111001110100100000100000 |
b111001110100100000100000 %"
b1100100 ;
b1100100 ]
b1100100 F"
b10000000000010000000000000000 ^
#118
b1100100 :"
b10000000001 5
b10000000001 S
b10000000001 /"
#120
0"
